^C:\USERS\משתמש\DOCUMENTS\MAGSHIMIM\YEAR2\ADVENCE\RAN_MORSKY_ADVANCED_PROGRAMMING\HW_10_STL\EX_1_MAGSHIMART\DEBUG\CUSTOMER.OBJ|C:\USERS\משתמש\DOCUMENTS\MAGSHIMIM\YEAR2\ADVENCE\RAN_MORSKY_ADVANCED_PROGRAMMING\HW_10_STL\EX_1_MAGSHIMART\DEBUG\INPUTEXCEPTION.OBJ|C:\USERS\משתמש\DOCUMENTS\MAGSHIMIM\YEAR2\ADVENCE\RAN_MORSKY_ADVANCED_PROGRAMMING\HW_10_STL\EX_1_MAGSHIMART\DEBUG\ITEM.OBJ|C:\USERS\משתמש\DOCUMENTS\MAGSHIMIM\YEAR2\ADVENCE\RAN_MORSKY_ADVANCED_PROGRAMMING\HW_10_STL\EX_1_MAGSHIMART\DEBUG\MAIN.OBJ|C:\USERS\משתמש\DOCUMENTS\MAGSHIMIM\YEAR2\ADVENCE\RAN_MORSKY_ADVANCED_PROGRAMMING\HW_10_STL\EX_1_MAGSHIMART\DEBUG\MAPFUNCTIONS.OBJ|C:\USERS\משתמש\DOCUMENTS\MAGSHIMIM\YEAR2\ADVENCE\RAN_MORSKY_ADVANCED_PROGRAMMING\HW_10_STL\EX_1_MAGSHIMART\DEBUG\MENUFUNCTIONS.OBJ
/OUT:"C:\USERS\משתמש\DOCUMENTS\MAGSHIMIM\YEAR2\ADVENCE\RAN_MORSKY_ADVANCED_PROGRAMMING\HW_10_STL\EX_1_MAGSHIMART\DEBUG\EX_1_MAGSHIMART.EXE" /INCREMENTAL /NOLOGO KERNEL32.LIB USER32.LIB GDI32.LIB WINSPOOL.LIB COMDLG32.LIB ADVAPI32.LIB SHELL32.LIB OLE32.LIB OLEAUT32.LIB UUID.LIB ODBC32.LIB ODBCCP32.LIB /MANIFEST /MANIFESTUAC:"level='asInvoker' uiAccess='false'" /manifest:embed /DEBUG:FASTLINK /PDB:"C:\USERS\משתמש\DOCUMENTS\MAGSHIMIM\YEAR2\ADVENCE\RAN_MORSKY_ADVANCED_PROGRAMMING\HW_10_STL\EX_1_MAGSHIMART\DEBUG\EX_1_MAGSHIMART.PDB" /SUBSYSTEM:CONSOLE /TLBID:1 /DYNAMICBASE /NXCOMPAT /IMPLIB:"C:\USERS\משתמש\DOCUMENTS\MAGSHIMIM\YEAR2\ADVENCE\RAN_MORSKY_ADVANCED_PROGRAMMING\HW_10_STL\EX_1_MAGSHIMART\DEBUG\EX_1_MAGSHIMART.LIB" /MACHINE:X86 DEBUG\CUSTOMER.OBJ
DEBUG\INPUTEXCEPTION.OBJ
DEBUG\ITEM.OBJ
DEBUG\MAIN.OBJ
DEBUG\MAPFUNCTIONS.OBJ
DEBUG\MENUFUNCTIONS.OBJ
