^C:\USERS\משתמש\DOCUMENTS\MAGSHIMIM\YEAR2\ADVENCE\RAN_MORSKY_ADVANCED_PROGRAMMING\HW_10_STL\EX_1_MAGSHIMART\DEBUG\CUSTOMER.OBJ|C:\USERS\משתמש\DOCUMENTS\MAGSHIMIM\YEAR2\ADVENCE\RAN_MORSKY_ADVANCED_PROGRAMMING\HW_10_STL\EX_1_MAGSHIMART\DEBUG\INPUTEXCEPTION.OBJ|C:\USERS\משתמש\DOCUMENTS\MAGSHIMIM\YEAR2\ADVENCE\RAN_MORSKY_ADVANCED_PROGRAMMING\HW_10_STL\EX_1_MAGSHIMART\DEBUG\ITEM.OBJ|C:\USERS\משתמש\DOCUMENTS\MAGSHIMIM\YEAR2\ADVENCE\RAN_MORSKY_ADVANCED_PROGRAMMING\HW_10_STL\EX_1_MAGSHIMART\DEBUG\MAIN.OBJ|C:\USERS\משתמש\DOCUMENTS\MAGSHIMIM\YEAR2\ADVENCE\RAN_MORSKY_ADVANCED_PROGRAMMING\HW_10_STL\EX_1_MAGSHIMART\DEBUG\MAPFUNCTIONS.OBJ|C:\USERS\משתמש\DOCUMENTS\MAGSHIMIM\YEAR2\ADVENCE\RAN_MORSKY_ADVANCED_PROGRAMMING\HW_10_STL\EX_1_MAGSHIMART\DEBUG\MENUFUNCTIONS.OBJ
C:\USERS\משתמש\DOCUMENTS\MAGSHIMIM\YEAR2\ADVENCE\RAN_MORSKY_ADVANCED_PROGRAMMING\HW_10_STL\EX_1_MAGSHIMART\DEBUG\EX_1_MAGSHIMART.EXE
C:\USERS\משתמש\DOCUMENTS\MAGSHIMIM\YEAR2\ADVENCE\RAN_MORSKY_ADVANCED_PROGRAMMING\HW_10_STL\EX_1_MAGSHIMART\DEBUG\EX_1_MAGSHIMART.ILK
C:\USERS\משתמש\DOCUMENTS\MAGSHIMIM\YEAR2\ADVENCE\RAN_MORSKY_ADVANCED_PROGRAMMING\HW_10_STL\EX_1_MAGSHIMART\DEBUG\EX_1_MAGSHIMART.PDB
