^C:\USERS\משתמש\DOCUMENTS\MAGSHIMIM\YEAR2\ADVENCE\RAN_MORSKY_ADVANCED_PROGRAMMING\HW_9_TREES_AND_TEMPLATES\EX_1_BSTREE\PRINTTREETOFILE.LIB|C:\USERS\משתמש\DOCUMENTS\MAGSHIMIM\YEAR2\ADVENCE\RAN_MORSKY_ADVANCED_PROGRAMMING\HW_9_TREES_AND_TEMPLATES\EX_1_BSTREE\X64\DEBUG\BSNODE.OBJ|C:\USERS\משתמש\DOCUMENTS\MAGSHIMIM\YEAR2\ADVENCE\RAN_MORSKY_ADVANCED_PROGRAMMING\HW_9_TREES_AND_TEMPLATES\EX_1_BSTREE\X64\DEBUG\EX_1_BSTREE.RES|C:\USERS\משתמש\DOCUMENTS\MAGSHIMIM\YEAR2\ADVENCE\RAN_MORSKY_ADVANCED_PROGRAMMING\HW_9_TREES_AND_TEMPLATES\EX_1_BSTREE\X64\DEBUG\MAIN.OBJ
C:\USERS\משתמש\DOCUMENTS\MAGSHIMIM\YEAR2\ADVENCE\RAN_MORSKY_ADVANCED_PROGRAMMING\HW_9_TREES_AND_TEMPLATES\EX_1_BSTREE\PRINTTREETOFILE.LIB
C:\PROGRAM FILES (X86)\WINDOWS KITS\10\LIB\10.0.18362.0\UM\X64\KERNEL32.LIB
C:\PROGRAM FILES (X86)\WINDOWS KITS\10\LIB\10.0.18362.0\UM\X64\USER32.LIB
C:\PROGRAM FILES (X86)\WINDOWS KITS\10\LIB\10.0.18362.0\UM\X64\GDI32.LIB
C:\PROGRAM FILES (X86)\WINDOWS KITS\10\LIB\10.0.18362.0\UM\X64\WINSPOOL.LIB
C:\PROGRAM FILES (X86)\WINDOWS KITS\10\LIB\10.0.18362.0\UM\X64\COMDLG32.LIB
C:\PROGRAM FILES (X86)\WINDOWS KITS\10\LIB\10.0.18362.0\UM\X64\ADVAPI32.LIB
C:\PROGRAM FILES (X86)\WINDOWS KITS\10\LIB\10.0.18362.0\UM\X64\SHELL32.LIB
C:\PROGRAM FILES (X86)\WINDOWS KITS\10\LIB\10.0.18362.0\UM\X64\OLE32.LIB
C:\PROGRAM FILES (X86)\WINDOWS KITS\10\LIB\10.0.18362.0\UM\X64\OLEAUT32.LIB
C:\PROGRAM FILES (X86)\WINDOWS KITS\10\LIB\10.0.18362.0\UM\X64\UUID.LIB
C:\PROGRAM FILES (X86)\WINDOWS KITS\10\LIB\10.0.18362.0\UM\X64\ODBC32.LIB
C:\PROGRAM FILES (X86)\WINDOWS KITS\10\LIB\10.0.18362.0\UM\X64\ODBCCP32.LIB
C:\USERS\משתמש\DOCUMENTS\MAGSHIMIM\YEAR2\ADVENCE\RAN_MORSKY_ADVANCED_PROGRAMMING\HW_9_TREES_AND_TEMPLATES\EX_1_BSTREE\X64\DEBUG\EX_1_BSTREE.RES
C:\USERS\משתמש\DOCUMENTS\MAGSHIMIM\YEAR2\ADVENCE\RAN_MORSKY_ADVANCED_PROGRAMMING\HW_9_TREES_AND_TEMPLATES\EX_1_BSTREE\X64\DEBUG\BSNODE.OBJ
C:\USERS\משתמש\DOCUMENTS\MAGSHIMIM\YEAR2\ADVENCE\RAN_MORSKY_ADVANCED_PROGRAMMING\HW_9_TREES_AND_TEMPLATES\EX_1_BSTREE\X64\DEBUG\MAIN.OBJ
C:\WINDOWS\SYSTEM32\TZRES.DLL
C:\WINDOWS\GLOBALIZATION\SORTING\SORTDEFAULT.NLS
C:\PROGRAM FILES (X86)\MICROSOFT VISUAL STUDIO\2019\COMMUNITY\VC\TOOLS\MSVC\14.23.28105\LIB\X64\MSVCPRTD.LIB
C:\PROGRAM FILES (X86)\MICROSOFT VISUAL STUDIO\2019\COMMUNITY\VC\TOOLS\MSVC\14.23.28105\LIB\X64\MSVCRTD.LIB
C:\PROGRAM FILES (X86)\MICROSOFT VISUAL STUDIO\2019\COMMUNITY\VC\TOOLS\MSVC\14.23.28105\LIB\X64\OLDNAMES.LIB
C:\PROGRAM FILES (X86)\MICROSOFT VISUAL STUDIO\2019\COMMUNITY\VC\TOOLS\MSVC\14.23.28105\LIB\X64\VCRUNTIMED.LIB
C:\PROGRAM FILES (X86)\WINDOWS KITS\10\LIB\10.0.18362.0\UCRT\X64\UCRTD.LIB
C:\PROGRAM FILES (X86)\MICROSOFT VISUAL STUDIO\2019\COMMUNITY\VC\TOOLS\MSVC\14.23.28105\BIN\HOSTX86\X64\MSPDBSRV.EXE
C:\PROGRAM FILES (X86)\MICROSOFT VISUAL STUDIO\2019\COMMUNITY\VC\TOOLS\MSVC\14.23.28105\BIN\HOSTX86\X64\VCTIP.EXE
