^C:\USERS\משתמש\DOCUMENTS\MAGSHIMIM\YEAR2\ADVENCE\RAN_MORSKY_ADVANCED_PROGRAMMING\DEBUGWORKSHOP\LOOPAGAIN\DEBUG\LOOPAGAIN.OBJ
C:\USERS\משתמש\DOCUMENTS\MAGSHIMIM\YEAR2\ADVENCE\RAN_MORSKY_ADVANCED_PROGRAMMING\DEBUGWORKSHOP\DEBUG\LOOPAGAIN.ILK
C:\USERS\משתמש\DOCUMENTS\MAGSHIMIM\YEAR2\ADVENCE\RAN_MORSKY_ADVANCED_PROGRAMMING\DEBUGWORKSHOP\DEBUG\LOOPAGAIN.EXE
C:\USERS\משתמש\DOCUMENTS\MAGSHIMIM\YEAR2\ADVENCE\RAN_MORSKY_ADVANCED_PROGRAMMING\DEBUGWORKSHOP\DEBUG\LOOPAGAIN.PDB
