^C:\USERS\משתמש\DOCUMENTS\MAGSHIMIM\YEAR2\ADVENCE\RAN_MORSKY_ADVANCED_PROGRAMMING\DEBUGWORKSHOP\SAFEANDSOUND\DEBUG\PART1.OBJ|C:\USERS\משתמש\DOCUMENTS\MAGSHIMIM\YEAR2\ADVENCE\RAN_MORSKY_ADVANCED_PROGRAMMING\DEBUGWORKSHOP\SAFEANDSOUND\DEBUG\PART2.OBJ|C:\USERS\משתמש\DOCUMENTS\MAGSHIMIM\YEAR2\ADVENCE\RAN_MORSKY_ADVANCED_PROGRAMMING\DEBUGWORKSHOP\SAFEANDSOUND\DEBUG\SAFEANDSOUND.OBJ
C:\USERS\משתמש\DOCUMENTS\MAGSHIMIM\YEAR2\ADVENCE\RAN_MORSKY_ADVANCED_PROGRAMMING\DEBUGWORKSHOP\DEBUG\SAFEANDSOUND.EXE
C:\USERS\משתמש\DOCUMENTS\MAGSHIMIM\YEAR2\ADVENCE\RAN_MORSKY_ADVANCED_PROGRAMMING\DEBUGWORKSHOP\DEBUG\SAFEANDSOUND.ILK
C:\USERS\משתמש\DOCUMENTS\MAGSHIMIM\YEAR2\ADVENCE\RAN_MORSKY_ADVANCED_PROGRAMMING\DEBUGWORKSHOP\DEBUG\SAFEANDSOUND.PDB
