^C:\USERS\משתמש\DOCUMENTS\MAGSHIMIM\YEAR2\ADVENCE\RAN_MORSKY_ADVANCED_PROGRAMMING\DEBUGWORKSHOP\MYPOINTEXACTLY\DEBUG\MAIN.OBJ|C:\USERS\משתמש\DOCUMENTS\MAGSHIMIM\YEAR2\ADVENCE\RAN_MORSKY_ADVANCED_PROGRAMMING\DEBUGWORKSHOP\MYPOINTEXACTLY\DEBUG\POINT.OBJ
C:\USERS\משתמש\DOCUMENTS\MAGSHIMIM\YEAR2\ADVENCE\RAN_MORSKY_ADVANCED_PROGRAMMING\DEBUGWORKSHOP\DEBUG\MYPOINTEXACTLY.EXE
C:\USERS\משתמש\DOCUMENTS\MAGSHIMIM\YEAR2\ADVENCE\RAN_MORSKY_ADVANCED_PROGRAMMING\DEBUGWORKSHOP\DEBUG\MYPOINTEXACTLY.ILK
C:\USERS\משתמש\DOCUMENTS\MAGSHIMIM\YEAR2\ADVENCE\RAN_MORSKY_ADVANCED_PROGRAMMING\DEBUGWORKSHOP\DEBUG\MYPOINTEXACTLY.PDB
