^C:\USERS\משתמש\DOCUMENTS\MAGSHIMIM\YEAR2\ADVENCE\RAN_MORSKY_ADVANCED_PROGRAMMING\HW_6_EXCEPTIONS\EX_2_EXCEPTIONS_SHAPES\DEBUG\CIRCLE.OBJ|C:\USERS\משתמש\DOCUMENTS\MAGSHIMIM\YEAR2\ADVENCE\RAN_MORSKY_ADVANCED_PROGRAMMING\HW_6_EXCEPTIONS\EX_2_EXCEPTIONS_SHAPES\DEBUG\HEXAGON.OBJ|C:\USERS\משתמש\DOCUMENTS\MAGSHIMIM\YEAR2\ADVENCE\RAN_MORSKY_ADVANCED_PROGRAMMING\HW_6_EXCEPTIONS\EX_2_EXCEPTIONS_SHAPES\DEBUG\MAIN.OBJ|C:\USERS\משתמש\DOCUMENTS\MAGSHIMIM\YEAR2\ADVENCE\RAN_MORSKY_ADVANCED_PROGRAMMING\HW_6_EXCEPTIONS\EX_2_EXCEPTIONS_SHAPES\DEBUG\MATHUTILS.OBJ|C:\USERS\משתמש\DOCUMENTS\MAGSHIMIM\YEAR2\ADVENCE\RAN_MORSKY_ADVANCED_PROGRAMMING\HW_6_EXCEPTIONS\EX_2_EXCEPTIONS_SHAPES\DEBUG\PARALLELOGRAM.OBJ|C:\USERS\משתמש\DOCUMENTS\MAGSHIMIM\YEAR2\ADVENCE\RAN_MORSKY_ADVANCED_PROGRAMMING\HW_6_EXCEPTIONS\EX_2_EXCEPTIONS_SHAPES\DEBUG\PENTAGON.OBJ|C:\USERS\משתמש\DOCUMENTS\MAGSHIMIM\YEAR2\ADVENCE\RAN_MORSKY_ADVANCED_PROGRAMMING\HW_6_EXCEPTIONS\EX_2_EXCEPTIONS_SHAPES\DEBUG\QUADRILATERAL.OBJ|C:\USERS\משתמש\DOCUMENTS\MAGSHIMIM\YEAR2\ADVENCE\RAN_MORSKY_ADVANCED_PROGRAMMING\HW_6_EXCEPTIONS\EX_2_EXCEPTIONS_SHAPES\DEBUG\RECTANGLE.OBJ|C:\USERS\משתמש\DOCUMENTS\MAGSHIMIM\YEAR2\ADVENCE\RAN_MORSKY_ADVANCED_PROGRAMMING\HW_6_EXCEPTIONS\EX_2_EXCEPTIONS_SHAPES\DEBUG\SHAPE.OBJ|C:\USERS\משתמש\DOCUMENTS\MAGSHIMIM\YEAR2\ADVENCE\RAN_MORSKY_ADVANCED_PROGRAMMING\HW_6_EXCEPTIONS\EX_2_EXCEPTIONS_SHAPES\DEBUG\SHAPEEXCEPTION.OBJ
C:\PROGRAM FILES (X86)\WINDOWS KITS\10\LIB\10.0.18362.0\UM\X86\KERNEL32.LIB
C:\PROGRAM FILES (X86)\WINDOWS KITS\10\LIB\10.0.18362.0\UM\X86\USER32.LIB
C:\PROGRAM FILES (X86)\WINDOWS KITS\10\LIB\10.0.18362.0\UM\X86\GDI32.LIB
C:\PROGRAM FILES (X86)\WINDOWS KITS\10\LIB\10.0.18362.0\UM\X86\WINSPOOL.LIB
C:\PROGRAM FILES (X86)\WINDOWS KITS\10\LIB\10.0.18362.0\UM\X86\COMDLG32.LIB
C:\PROGRAM FILES (X86)\WINDOWS KITS\10\LIB\10.0.18362.0\UM\X86\ADVAPI32.LIB
C:\PROGRAM FILES (X86)\WINDOWS KITS\10\LIB\10.0.18362.0\UM\X86\SHELL32.LIB
C:\PROGRAM FILES (X86)\WINDOWS KITS\10\LIB\10.0.18362.0\UM\X86\OLE32.LIB
C:\PROGRAM FILES (X86)\WINDOWS KITS\10\LIB\10.0.18362.0\UM\X86\OLEAUT32.LIB
C:\PROGRAM FILES (X86)\WINDOWS KITS\10\LIB\10.0.18362.0\UM\X86\UUID.LIB
C:\PROGRAM FILES (X86)\WINDOWS KITS\10\LIB\10.0.18362.0\UM\X86\ODBC32.LIB
C:\PROGRAM FILES (X86)\WINDOWS KITS\10\LIB\10.0.18362.0\UM\X86\ODBCCP32.LIB
C:\USERS\משתמש\DOCUMENTS\MAGSHIMIM\YEAR2\ADVENCE\RAN_MORSKY_ADVANCED_PROGRAMMING\HW_6_EXCEPTIONS\EX_2_EXCEPTIONS_SHAPES\DEBUG\CIRCLE.OBJ
C:\USERS\משתמש\DOCUMENTS\MAGSHIMIM\YEAR2\ADVENCE\RAN_MORSKY_ADVANCED_PROGRAMMING\HW_6_EXCEPTIONS\EX_2_EXCEPTIONS_SHAPES\DEBUG\HEXAGON.OBJ
C:\USERS\משתמש\DOCUMENTS\MAGSHIMIM\YEAR2\ADVENCE\RAN_MORSKY_ADVANCED_PROGRAMMING\HW_6_EXCEPTIONS\EX_2_EXCEPTIONS_SHAPES\DEBUG\MAIN.OBJ
C:\USERS\משתמש\DOCUMENTS\MAGSHIMIM\YEAR2\ADVENCE\RAN_MORSKY_ADVANCED_PROGRAMMING\HW_6_EXCEPTIONS\EX_2_EXCEPTIONS_SHAPES\DEBUG\MATHUTILS.OBJ
C:\USERS\משתמש\DOCUMENTS\MAGSHIMIM\YEAR2\ADVENCE\RAN_MORSKY_ADVANCED_PROGRAMMING\HW_6_EXCEPTIONS\EX_2_EXCEPTIONS_SHAPES\DEBUG\PARALLELOGRAM.OBJ
C:\USERS\משתמש\DOCUMENTS\MAGSHIMIM\YEAR2\ADVENCE\RAN_MORSKY_ADVANCED_PROGRAMMING\HW_6_EXCEPTIONS\EX_2_EXCEPTIONS_SHAPES\DEBUG\PENTAGON.OBJ
C:\USERS\משתמש\DOCUMENTS\MAGSHIMIM\YEAR2\ADVENCE\RAN_MORSKY_ADVANCED_PROGRAMMING\HW_6_EXCEPTIONS\EX_2_EXCEPTIONS_SHAPES\DEBUG\QUADRILATERAL.OBJ
C:\USERS\משתמש\DOCUMENTS\MAGSHIMIM\YEAR2\ADVENCE\RAN_MORSKY_ADVANCED_PROGRAMMING\HW_6_EXCEPTIONS\EX_2_EXCEPTIONS_SHAPES\DEBUG\RECTANGLE.OBJ
C:\USERS\משתמש\DOCUMENTS\MAGSHIMIM\YEAR2\ADVENCE\RAN_MORSKY_ADVANCED_PROGRAMMING\HW_6_EXCEPTIONS\EX_2_EXCEPTIONS_SHAPES\DEBUG\SHAPE.OBJ
C:\USERS\משתמש\DOCUMENTS\MAGSHIMIM\YEAR2\ADVENCE\RAN_MORSKY_ADVANCED_PROGRAMMING\HW_6_EXCEPTIONS\EX_2_EXCEPTIONS_SHAPES\DEBUG\SHAPEEXCEPTION.OBJ
C:\WINDOWS\SYSTEM32\TZRES.DLL
C:\WINDOWS\GLOBALIZATION\SORTING\SORTDEFAULT.NLS
C:\PROGRAM FILES (X86)\MICROSOFT VISUAL STUDIO\2019\COMMUNITY\VC\TOOLS\MSVC\14.23.28105\LIB\X86\MSVCPRTD.LIB
C:\PROGRAM FILES (X86)\MICROSOFT VISUAL STUDIO\2019\COMMUNITY\VC\TOOLS\MSVC\14.23.28105\LIB\X86\MSVCRTD.LIB
C:\PROGRAM FILES (X86)\MICROSOFT VISUAL STUDIO\2019\COMMUNITY\VC\TOOLS\MSVC\14.23.28105\LIB\X86\OLDNAMES.LIB
C:\PROGRAM FILES (X86)\MICROSOFT VISUAL STUDIO\2019\COMMUNITY\VC\TOOLS\MSVC\14.23.28105\LIB\X86\VCRUNTIMED.LIB
C:\PROGRAM FILES (X86)\WINDOWS KITS\10\LIB\10.0.18362.0\UCRT\X86\UCRTD.LIB
